63
133
133
800
0
-10
696
696
7
-7
13
13
-13
-13
-7
7
604
804
946
1034
95
85
185
100000000000
1
1
-1
4
-8
100
1
17324272922341479351919144385642496
3748096
2
3
-44
198
109998
19999998
22
900000
9000
-198
10998
-19998
0
-9000
9801
9801
-9801
-9801
